<?xml version="1.0"?>
<!DOCTYPE hibernate-mapping PUBLIC "-//Hibernate/Hibernate Mapping DTD 3.0//EN"
        "http://hibernate.sourceforge.net/hibernate-mapping-3.0.dtd">

<hibernate-mapping>
    <class name="com.avanza.workflow.logger.WorkflowLog"
           table="WORKFLOW_LOG">
        <composite-id>
            <key-property name="processCode" column="PROCESS_CODE"></key-property>
            <key-property name="logDateTime" column="LOG_DATETIME"></key-property>
            <key-property name="refDocumentNumber"
                          column="REF_DOC_NUM">
            </key-property>
        </composite-id>

        <property name="metaEntityId" column="META_ENT_ID"/>
        <property name="logId" column="LOG_ID"/>
        <property name="currentState" column="CURRENT_STATE"/>
        <property name="nextState" column="NEXT_STATE"/>
        <property name="possibleActors" column="POSSIBLE_ACTOR"/>
        <property name="lockActor" column="LOCK_ACTOR"/>
        <property name="lockTime" column="LOCK_TIME"/>
        <property name="stateEntryTime" column="STATE_ENTRY_TIME"/>
        <property name="stateLeavingTime" column="STATE_LEAVE_TIME"/>
        <property name="stateTime" column="STATE_TIME"/>
        <property name="processTime" column="PROCESS_TIME"/>
        <property name="finalNotes" column="NOTES"/>
        <property name="processRemainingTime" column="PROCESS_REMAINING_TIME"/>
        <property name="appointmentDate" column="APPOINTMENT_DATE"/>

        <property name="isStateTatExpired"
                  column="IS_STATE_TAT_EXPIRED"/>
        <property name="isProcessTatExpired"
                  column="IS_PROCESS_TAT_EXPIRED"/>
        <property name="taskCode" column="TASK_CODE"/>
        <property name="isStartActivity" column="IS_START_ACTIVITY"/>
        <property name="isEndActivity" column="IS_END_ACTIVITY"/>

        <property name="createdOn" type="timestamp">
            <column name="CREATED_ON" not-null="true"/>
        </property>
        <property name="createdBy" type="string">
            <column name="CREATED_BY" not-null="true"/>
        </property>
        <property name="updatedOn" type="timestamp">
            <column name="UPDATED_ON" not-null="true"/>
        </property>
        <property name="updatedBy" type="string">
            <column name="UPDATED_BY" not-null="true"/>
        </property>

        <!--	<set name="actionLogs" inverse="true" lazy="false">
                <key>
                    <column name="PROCESS_CODE" />
                    <column name="LOG_DATETIME" />
                    <column name="REF_DOC_NUM" />
                </key>
                <one-to-many class="com.avanza.workflow.logger.ActionLog" />
            </set> -->
    </class>
</hibernate-mapping>
